<?xml version="1.0" encoding="UTF-8" standalone="no"?>
<!-- Created with Inkscape (http://www.inkscape.org/) -->

<svg
   xmlns:dc="http://purl.org/dc/elements/1.1/"
   xmlns:cc="http://creativecommons.org/ns#"
   xmlns:rdf="http://www.w3.org/1999/02/22-rdf-syntax-ns#"
   xmlns:svg="http://www.w3.org/2000/svg"
   xmlns="http://www.w3.org/2000/svg"
   xmlns:sodipodi="http://sodipodi.sourceforge.net/DTD/sodipodi-0.dtd"
   xmlns:inkscape="http://www.inkscape.org/namespaces/inkscape"
   width="210mm"
   height="297mm"
   viewBox="0 0 210 297"
   version="1.1"
   id="svg2657"
   inkscape:version="0.92.4 (5da689c313, 2019-01-14)"
   sodipodi:docname="logo.svg">
  <defs
     id="defs2651" />
  <sodipodi:namedview
     id="base"
     pagecolor="#ffffff"
     bordercolor="#666666"
     borderopacity="1.0"
     inkscape:pageopacity="0.0"
     inkscape:pageshadow="2"
     inkscape:zoom="0.45254834"
     inkscape:cx="360.09939"
     inkscape:cy="673.95265"
     inkscape:document-units="mm"
     inkscape:current-layer="layer1"
     showgrid="false"
     inkscape:window-width="1280"
     inkscape:window-height="972"
     inkscape:window-x="-8"
     inkscape:window-y="-8"
     inkscape:window-maximized="1"
     inkscape:snap-nodes="false" />
  <metadata
     id="metadata2654">
    <rdf:RDF>
      <cc:Work
         rdf:about="">
        <dc:format>image/svg+xml</dc:format>
        <dc:type
           rdf:resource="http://purl.org/dc/dcmitype/StillImage" />
        <dc:title />
      </cc:Work>
    </rdf:RDF>
  </metadata>
  <g
     inkscape:label="Camada 1"
     inkscape:groupmode="layer"
     id="layer1">
    <text
       xml:space="preserve"
       style="font-style:normal;font-variant:normal;font-weight:normal;font-stretch:normal;font-size:10.58333302px;line-height:1.25;font-family:Bellota;-inkscape-font-specification:Bellota;letter-spacing:0px;word-spacing:0px;fill:#000000;fill-opacity:1;stroke:none;stroke-width:0.26458332;"
       x="62.006531"
       y="57.526501"
       id="text7395"><tspan
         sodipodi:role="line"
         id="tspan7393"
         x="62.006531"
         y="68.049515"
         style="stroke-width:0.26458332;-inkscape-font-specification:Bellota;font-family:Bellota;font-weight:normal;font-style:normal;font-stretch:normal;font-variant:normal;" /></text>
    <g
       id="g8417">
      <path
         inkscape:export-ydpi="150"
         inkscape:export-xdpi="150"
         sodipodi:nodetypes="ccaaccacccccc"
         inkscape:connector-curvature="0"
         id="path912-0"
         d="m 184.25097,87.938059 4.5051,-5.462631 c 0,0 2.08742,-3.424888 2.926,-5.260308 0.72741,-1.592112 1.40784,-3.233667 1.81134,-4.956832 0.50863,-2.172288 0.7431,-6.676544 0.7431,-6.676544 l 0.88245,-3.085377 c 0,0 0.49183,-0.44833 0.78956,-0.455219 0.36,-0.0083 0.97531,0.5058 0.97531,0.5058 l 0.23224,3.439433 -1.06823,5.209728 -2.83311,6.47423 -3.66909,6.170745 -4.6909,5.260316"
         style="display:inline;fill:#bf671e;fill-opacity:1;stroke:#000000;stroke-width:0.171;stroke-linecap:butt;stroke-linejoin:miter;stroke-opacity:1;stroke-miterlimit:4;stroke-dasharray:none" />
      <path
         inkscape:export-ydpi="150"
         inkscape:export-xdpi="150"
         sodipodi:nodetypes="cccccccccc"
         inkscape:connector-curvature="0"
         id="path839-2"
         d="m 194.27705,67.940151 1.06822,-4.147556 0.5109,-0.303476 c 0.54989,-0.106648 0.29414,1.399376 0.41799,2.023197 l -0.418,3.085377 -1.39331,4.653347 -1.39335,3.338273 -1.30045,1.922035 -1.34688,1.719721 -0.83599,1.11276"
         style="display:inline;fill:none;stroke:#000000;stroke-width:0.1;stroke-linecap:butt;stroke-linejoin:miter;stroke-opacity:1;stroke-miterlimit:4;stroke-dasharray:none" />
      <text
         inkscape:export-ydpi="150"
         inkscape:export-xdpi="150"
         transform="scale(1.0116187,0.98851476)"
         id="text1698-7"
         y="147.32222"
         x="156.44269"
         style="font-style:normal;font-variant:normal;font-weight:bold;font-stretch:normal;font-size:66.87493134px;line-height:1.25;font-family:Bellota;-inkscape-font-specification:'Bellota, Bold';font-variant-ligatures:normal;font-variant-caps:normal;font-variant-numeric:normal;font-feature-settings:normal;text-align:start;letter-spacing:0px;word-spacing:0px;writing-mode:lr-tb;text-anchor:start;display:inline;fill:#000000;fill-opacity:1;stroke:none;stroke-width:1.67188752"
         xml:space="preserve"><tspan
           style="font-style:normal;font-variant:normal;font-weight:bold;font-stretch:normal;font-size:66.87493134px;font-family:Bellota;-inkscape-font-specification:'Bellota, Bold';font-variant-ligatures:normal;font-variant-caps:normal;font-variant-numeric:normal;font-feature-settings:normal;text-align:start;writing-mode:lr-tb;text-anchor:start;fill:#000000;stroke-width:1.67188752"
           y="147.32222"
           x="156.44269"
           id="tspan1696-1"
           sodipodi:role="line">a</tspan></text>
      <g
         id="g8179">
        <text
           xml:space="preserve"
           style="font-style:normal;font-variant:normal;font-weight:normal;font-stretch:normal;font-size:59.12286758px;line-height:1.25;font-family:'Blastpink Script';-inkscape-font-specification:'Blastpink Script';letter-spacing:0px;word-spacing:0px;fill:#000000;fill-opacity:1;stroke:none;stroke-width:1.47807157"
           x="-3.8919108"
           y="135.26613"
           id="text3330"
           transform="scale(0.93183679,1.0731493)"
           inkscape:export-xdpi="150"
           inkscape:export-ydpi="150"><tspan
             sodipodi:role="line"
             id="tspan3328"
             x="-3.8919108"
             y="135.26613"
             style="font-style:normal;font-variant:normal;font-weight:bold;font-stretch:normal;font-size:59.12419891px;font-family:Bellota;-inkscape-font-specification:'Bellota, Bold';font-variant-ligatures:normal;font-variant-caps:normal;font-variant-numeric:normal;font-feature-settings:normal;text-align:start;writing-mode:lr-tb;text-anchor:start;stroke-width:1.47807157;fill:#000000">formig</tspan></text>
        <path
           sodipodi:nodetypes="ccccccscsac"
           inkscape:connector-curvature="0"
           id="path868-0"
           d="m 173.80771,87.402632 c 1.04209,-0.953601 2.32725,-1.46926 3.85488,-1.66914 0.90648,-0.247353 1.95777,-0.05583 3.11178,0.10117 1.18403,0.330965 2.13506,0.864454 2.64733,1.416228 1.67934,2.118135 1.60296,4.405658 0.88245,5.867277 -0.67021,1.125544 -1.42995,2.169805 -2.83311,2.630158 -1.04346,0.62966 -3.58236,0.884799 -6.31645,0.531086 -0.79693,-0.1031 -1.62405,-0.598206 -2.29898,-1.365656 -0.90747,-0.843373 -1.05636,-2.451856 -1.04501,-3.616462 0.0152,-1.54874 0.95179,-2.938104 1.99711,-3.894653 z"
           style="display:inline;fill:#dbf1fc;fill-opacity:1;stroke:#000000;stroke-width:0.27142116px;stroke-linecap:butt;stroke-linejoin:miter;stroke-opacity:1"
           inkscape:export-xdpi="150"
           inkscape:export-ydpi="150" />
        <ellipse
           transform="matrix(0.98028049,-0.19761114,0.15948238,0.98720078,0,0)"
           ry="3.7407365"
           rx="5.7812057"
           cy="123.11292"
           cx="161.47371"
           id="ellipse870-2"
           style="display:inline;opacity:1;fill:#ffffff;fill-opacity:1;stroke:#000000;stroke-width:0.40591773"
           inkscape:export-xdpi="150"
           inkscape:export-ydpi="150" />
        <ellipse
           style="display:inline;opacity:1;fill:#ffffff;fill-opacity:1;stroke:none;stroke-width:0.13684195"
           id="ellipse874-2"
           cx="198.74313"
           cy="-62.249527"
           rx="0.92819953"
           ry="1.2959504"
           transform="matrix(0.70402688,0.71017332,-0.56825196,0.82285461,0,0)"
           inkscape:export-xdpi="150"
           inkscape:export-ydpi="150" />
        <path
           style="fill:#bf671e;fill-opacity:1;stroke:none;stroke-width:0.27142116px;stroke-linecap:butt;stroke-linejoin:miter;stroke-opacity:1"
           d="m 184.29618,94.761259 c 0.7911,2.366598 1.31411,5.605691 0.45978,7.219161 -1.81294,3.42387 -1.71178,3.02456 -3.76764,4.56806 -1.24145,0.93206 -2.59004,0.58512 -3.84028,1.19306 -2.01181,-0.12352 -3.1345,-0.6942 -4.70851,-1.48522 l -0.89874,-0.73263 -1.73067,-0.0403 c -0.48584,-0.23428 -1.04578,-1.06025 -0.91858,-1.50108 -0.10562,-0.2457 0.006,-0.73862 0.51293,-0.88902 l 2.60285,-0.4977 h -3.32112 c -2.35917,-0.64102 -2.91748,-1.29423 -4.61538,-3.755205 -1.9561,-3.132943 -1.57849,-5.259856 -0.72251,-7.095506 0.82296,-1.764853 1.68084,-2.060735 2.58964,-2.569898 1.68673,-1.118126 3.25668,-1.091529 4.86274,-1.418985 1.10198,0 2.16195,0.250358 3.5836,0.429185 l -0.78899,1.223176 c -1.37337,1.406964 -2.45441,2.569197 -0.88676,4.931821 0.93386,1.970821 2.00952,3.420768 3.81902,3.102906 2.08552,2.034063 3.74459,-0.371169 5.44174,-0.536481 0.83531,-0.689113 1.88907,-1.283065 2.32688,-2.145339 z"
           id="path828-0"
           inkscape:connector-curvature="0"
           sodipodi:nodetypes="csscccccccccsccccccccc" />
        <g
           style="stroke:none"
           id="g4341"
           transform="matrix(0.98301225,0,0,1.0705417,436.39173,178.35051)">
          <path
             sodipodi:nodetypes="cccsccsccscccccccc"
             inkscape:connector-curvature="0"
             id="path826-8"
             d="m -268.05008,-82.470377 c -1.29914,-0.08677 -1.69505,-0.08459 -3.6203,0.454752 -0.64492,1.084189 -1.89564,0.96877 -3.35312,0.740372 -0.86526,1.184698 -2.98126,1.152211 -1.53423,5.768238 0.61483,1.961299 1.50154,3.884238 3.9026,4.43715 1.25421,1.734637 3.58913,-0.06575 5.80731,-1.836439 -1.46844,0.860149 -2.59846,3.445368 -4.41378,2.548292 -0.38683,-0.19116 -1.19176,0.842205 0,1.571554 0.13287,0.750622 0.986,0.600922 1.81174,0.485452 0.7077,1.597699 2.49201,2.216011 4.1302,2.384568 1.90928,0.19645 3.5498,-0.631792 4.65223,-1.246563 1.12958,-1.077845 2.42989,-1.814234 3.14713,-3.716779 0.20045,-1.360406 0.69651,-2.735743 -0.16705,-4.74939 l -0.45585,-0.986588 c -1.92965,1.509684 -4.35637,1.372482 -6.45159,0.835217 -1.38324,-0.349945 -2.8044,-0.717953 -3.54195,-2.828846 -0.81907,-1.799915 -0.26053,-3.489142 0.0867,-3.86099 z"
             style="fill:#b45f15;fill-opacity:1;stroke:none;stroke-width:0.26458332px;stroke-linecap:butt;stroke-linejoin:miter;stroke-opacity:1" />
        </g>
        <path
           style="fill:#df861f;fill-opacity:1;stroke:none;stroke-width:0.27142116px;stroke-linecap:butt;stroke-linejoin:miter;stroke-opacity:1"
           d="m 169.72158,90.256845 -0.19205,-0.463495 c -0.22723,-0.548385 -0.41056,-0.757062 -1.45001,-0.643778 -1.06069,0.1156 -1.158,0.206432 -1.42677,0.424472 -0.39998,0.324482 -0.34938,0.59342 -0.41063,0.852548 -0.0559,0.23651 -0.11003,0.624981 0.0322,0.798004 0.28395,0.345275 1.34005,0.279419 1.34005,0.279419 0.98134,-0.01071 2.45424,-0.409514 2.10716,-1.24717 z"
           id="path830-3"
           inkscape:connector-curvature="0"
           sodipodi:nodetypes="sssssscs" />
        <path
           style="fill:#dbf1fc;fill-opacity:1;stroke:#000000;stroke-width:0.27519011px;stroke-linecap:butt;stroke-linejoin:miter;stroke-opacity:1"
           d="m 174.318,88.18833 c 1.0418,-0.980543 2.3266,-1.510764 3.85381,-1.71629 0.90622,-0.254342 1.95721,-0.05743 3.11091,0.104025 1.1837,0.340311 2.13446,0.888872 2.64659,1.456246 1.67887,2.177967 1.60251,4.530111 0.8822,6.033026 -0.67001,1.157337 -1.42954,2.231105 -2.83231,2.704459 -1.04317,0.647462 -3.58137,0.909794 -6.31469,0.546091 -0.79672,-0.106016 -1.6236,-0.61511 -2.29835,-1.404238 -0.90722,-0.867191 -1.05606,-2.521112 -1.04472,-3.718631 0.0151,-1.592489 0.95153,-3.021098 1.99656,-4.004681 z"
           id="path842-1"
           inkscape:connector-curvature="0"
           sodipodi:nodetypes="ccccccscsac" />
        <ellipse
           style="opacity:1;fill:#ffffff;fill-opacity:1;stroke:#000000;stroke-width:0.40669081"
           id="path846-8"
           cx="162.8222"
           cy="125.81589"
           rx="5.6473765"
           ry="3.843982"
           transform="matrix(0.97809702,-0.20814949,0.15126845,0.98849272,0,0)" />
        <ellipse
           style="opacity:1;fill:#000000;fill-opacity:1;stroke:none;stroke-width:0.32422614"
           id="path848-7"
           cx="197.63295"
           cy="-10.635289"
           rx="2.2534084"
           ry="2.9967279"
           transform="matrix(0.86178849,0.50726778,-0.46562267,0.88498335,0,0)" />
        <ellipse
           transform="matrix(0.69396927,0.72000462,-0.55743252,0.83022225,0,0)"
           ry="1.3207365"
           rx="0.94138986"
           cy="-65.046761"
           cx="201.08183"
           id="ellipse850-4"
           style="opacity:1;fill:#ffffff;fill-opacity:1;stroke:none;stroke-width:0.13912246" />
        <path
           style="display:inline;fill:#bf671e;fill-opacity:1;stroke:#000000;stroke-width:0.1;stroke-linecap:butt;stroke-linejoin:miter;stroke-opacity:1;stroke-miterlimit:4;stroke-dasharray:none"
           d="m 181.23259,85.824337 0.0656,-4.544753 -0.72251,-6.616592 c -0.78797,-2.456838 -1.51524,-4.873989 -2.72388,-7.605693 l -0.10044,-0.298462 c 0,0 -2.90817,-4.597104 -4.63061,-6.652364 -0.51459,-0.614025 -0.22989,-1.752504 -0.22989,-1.752504 l 1.05091,-0.429187 c 0.98349,-0.06768 1.61808,0.624502 2.16752,1.502147 l 3.28412,7.081551 2.29888,8.798285 0.68966,9.155945 -0.0985,1.680971"
           id="path882-0"
           inkscape:connector-curvature="0"
           sodipodi:nodetypes="cccccsccccccc"
           inkscape:export-xdpi="150"
           inkscape:export-ydpi="150" />
        <path
           style="display:inline;fill:none;stroke:#000000;stroke-width:0.1;stroke-linecap:butt;stroke-linejoin:miter;stroke-opacity:1;stroke-miterlimit:4;stroke-dasharray:none"
           d="m 173.74479,60.82178 c 0,0 -0.39508,-1.235756 2e-5,-1.53791 0.39132,-0.299256 1.22911,-0.05959 1.47784,0.393416 2.52767,4.603367 2.79151,5.22175 2.79151,5.22175 1.26357,2.122084 1.97327,5.580725 1.67586,6.366244 1.44686,5.479179 0.76565,4.005722 1.14847,6.008582"
           id="path884-4"
           inkscape:connector-curvature="0"
           sodipodi:nodetypes="cssccc"
           inkscape:export-xdpi="150"
           inkscape:export-ydpi="150" />
        <path
           style="display:inline;fill:#bf671e;fill-opacity:1;stroke:#000000;stroke-width:0.071;stroke-linecap:butt;stroke-linejoin:miter;stroke-miterlimit:4;stroke-dasharray:none;stroke-opacity:1"
           d="m 175.45567,111.31856 c -0.38205,-0.9656 -0.0891,-1.55619 0.0929,-2.2761 l 1.39334,-1.31508 2.69378,-0.65754 2.508,0.60696 c 1.55596,0.71841 2.48262,1.94663 3.20467,2.63016 l 1.37268,2.37877"
           id="path860-4"
           inkscape:connector-curvature="0"
           sodipodi:nodetypes="ccccccc"
           inkscape:export-xdpi="150"
           inkscape:export-ydpi="150" />
        <path
           style="display:inline;fill:none;fill-opacity:1;stroke:#000000;stroke-width:0.071;stroke-linecap:butt;stroke-linejoin:miter;stroke-miterlimit:4;stroke-dasharray:none;stroke-opacity:1"
           d="m 176.08776,111.38307 1.53267,-2.0232 c 0,0 0.63492,-0.56743 1.02178,-0.65754 1.25365,-0.29203 2.06314,-0.18465 2.87956,-0.10116 0.97301,0.0995 2.23933,1.15161 2.09,1.21392 0.83691,1.22646 1.06709,1.7237 1.16111,1.87146"
           id="path862-4"
           inkscape:connector-curvature="0"
           sodipodi:nodetypes="ccsscc"
           inkscape:export-xdpi="150"
           inkscape:export-ydpi="150" />
        <path
           style="display:inline;fill:#b45f15;fill-opacity:1;stroke:#000000;stroke-width:0.2;stroke-linecap:butt;stroke-linejoin:miter;stroke-opacity:1;stroke-miterlimit:4;stroke-dasharray:none"
           d="m 168.15506,114.20596 -3.89619,-3.26981 c -0.38223,-0.34059 -0.32751,0.0105 -0.46959,0.18443 -0.16893,0.20681 -0.50856,0.61871 -0.50856,0.61871 l 3.52746,3.78174"
           id="path887-2"
           inkscape:connector-curvature="0"
           sodipodi:nodetypes="ccscc"
           inkscape:export-xdpi="150"
           inkscape:export-ydpi="150" />
        <path
           style="display:inline;fill:#bf671e;fill-opacity:1;stroke:#000000;stroke-width:0.077;stroke-linecap:butt;stroke-linejoin:miter;stroke-opacity:1;stroke-miterlimit:4;stroke-dasharray:none"
           d="m 167.38508,114.90566 -3.70316,-3.73221"
           id="path889-9"
           inkscape:connector-curvature="0"
           sodipodi:nodetypes="cc"
           inkscape:export-xdpi="150"
           inkscape:export-ydpi="150" />
        <path
           style="fill:#bf671e;fill-opacity:1;stroke:#1a1a1a;stroke-width:0.1;stroke-linecap:butt;stroke-linejoin:miter;stroke-miterlimit:4;stroke-dasharray:none;stroke-opacity:1"
           d="m 162.67289,111.18368 -2.05142,-0.0419 c 0,0 -1.02823,-0.44073 -0.98125,-0.90461 0.0432,-0.42649 1.04692,-0.59754 1.04692,-0.59754 l 1.5764,0.14306 c 0,0 -1.63593,-1.03066 -1.83911,-1.93133 -0.0331,-0.14644 0.0282,-0.32861 0.13137,-0.42918 0.23358,-0.22768 0.60895,-0.26078 0.91954,-0.2146 0.51427,0.0765 1.05434,0.34611 1.37932,0.78684 0.44582,0.60459 0.55926,2.24507 0.55926,2.24507"
           id="path1000-6"
           inkscape:connector-curvature="0"
           sodipodi:nodetypes="ccaccaaaac" />
        <path
           style="fill:#bf671e;fill-opacity:1;stroke:#1a1a1a;stroke-width:0.1;stroke-linecap:butt;stroke-linejoin:miter;stroke-miterlimit:4;stroke-dasharray:none;stroke-opacity:1"
           d="m 164.52276,110.82603 c 0.024,-0.31692 0.0632,-1.2843 0.0657,-1.91345 0.002,-0.42823 -0.12411,-0.91734 -0.32842,-1.32332 -0.13542,-0.26909 -0.28966,-0.60003 -0.57472,-0.69743 -0.12747,-0.0436 -0.29696,-0.0114 -0.39412,0.0894 -0.11052,0.11469 -0.10801,0.31674 -0.11493,0.48283 -0.0383,0.91729 0.41051,2.71817 0.41051,2.71817"
           id="path1016-9"
           inkscape:connector-curvature="0"
           sodipodi:nodetypes="csaaaac" />
        <path
           style="fill:#bf671e;fill-opacity:1;stroke:#1a1a1a;stroke-width:0.1;stroke-linecap:butt;stroke-linejoin:miter;stroke-miterlimit:4;stroke-dasharray:none;stroke-opacity:1"
           d="M 163.24681,111.7419 161.19538,111.7 c 0,0 -1.02823,-0.44072 -0.98123,-0.90461 0.0432,-0.42649 1.04692,-0.59753 1.04692,-0.59753 l 1.57639,0.14306 c 0,0 -1.63593,-1.03066 -1.83912,-1.93133 -0.033,-0.14645 0.0282,-0.32862 0.13137,-0.42919 0.23358,-0.22768 0.60895,-0.26078 0.91955,-0.21459 0.51426,0.0765 1.05435,0.34611 1.37933,0.78684 0.44581,0.60459 0.55925,2.24507 0.55925,2.24507"
           id="path1000-9-3"
           inkscape:connector-curvature="0"
           sodipodi:nodetypes="ccaccaaaac" />
        <path
           style="fill:#bf671e;fill-opacity:1;stroke:#1a1a1a;stroke-width:0.1;stroke-linecap:butt;stroke-linejoin:miter;stroke-miterlimit:4;stroke-dasharray:none;stroke-opacity:1"
           d="m 165.00379,111.43483 c 0.024,-0.31692 0.0632,-1.2843 0.0657,-1.91345 0.002,-0.42823 -0.1241,-0.91734 -0.32841,-1.32332 -0.13542,-0.26908 -0.30219,-0.60005 -0.57472,-0.69742 -0.12751,-0.0456 -0.29697,-0.0114 -0.39412,0.0894 -0.11053,0.1147 -0.10961,0.31651 -0.11494,0.48283 -0.0303,0.94571 0.47615,2.7897 0.47615,2.7897"
           id="path1016-7-2"
           inkscape:connector-curvature="0"
           sodipodi:nodetypes="csasaac" />
        <path
           style="display:inline;fill:#bf671e;fill-opacity:1;stroke:#000000;stroke-width:0.1;stroke-linecap:butt;stroke-linejoin:miter;stroke-opacity:1;stroke-miterlimit:4;stroke-dasharray:none"
           d="m 171.50359,113.19584 c 0,0 -0.22452,-0.34079 -0.16394,-0.50745 0.16403,-0.45123 0.74298,-0.70367 1.18046,-0.65244 0.20881,0.0244 0.49189,0.43497 0.49189,0.43497"
           id="path1469-7"
           inkscape:connector-curvature="0"
           sodipodi:nodetypes="caac"
           inkscape:export-xdpi="150"
           inkscape:export-ydpi="150" />
        <path
           style="display:inline;fill:#bf671e;fill-opacity:1;stroke:#000000;stroke-width:0.27303365px;stroke-linecap:butt;stroke-linejoin:miter;stroke-opacity:1"
           d="m 170.88058,111.85472 c 0,0 -1.78646,0.24429 -2.62333,-0.0363 -0.2495,-0.0836 -0.61029,-0.18744 -0.6558,-0.47121 -0.0477,-0.29742 0.25475,-0.57479 0.49185,-0.72493 0.41999,-0.26596 1.44281,-0.18124 1.44281,-0.18124 l 0.88537,0.43497 c 0,0 -1.71501,-0.82516 -1.93468,-1.7036 -0.0498,-0.19899 0.0489,-0.45376 0.19673,-0.57995 0.25223,-0.2153 0.64137,-0.19227 0.95096,-0.10874 0.483,0.13032 1.24609,0.90617 1.24609,0.90617 l 0.68859,1.12365 c 0,0 -0.76062,-1.47134 -0.52465,-2.17481 0.0874,-0.2608 0.3763,-0.52582 0.62303,-0.4712 0.47267,0.10464 0.68401,0.82058 0.787,1.34113 0.11328,0.57254 -0.22955,1.73983 -0.22955,1.73983 l -0.16394,0.36247"
           id="path1471-2"
           inkscape:connector-curvature="0"
           sodipodi:nodetypes="caaaccaaaccaaacc"
           inkscape:export-xdpi="150"
           inkscape:export-ydpi="150" />
        <path
           style="display:inline;fill:#bf671e;fill-opacity:1;stroke:#000000;stroke-width:0.1;stroke-linecap:butt;stroke-linejoin:miter;stroke-opacity:1;stroke-miterlimit:4;stroke-dasharray:none"
           d="m 171.23156,112.38876 c 0,0 -1.78646,0.24429 -2.62333,-0.0363 -0.2495,-0.0836 -0.61029,-0.18743 -0.6558,-0.47121 -0.0477,-0.29741 0.25475,-0.57478 0.49185,-0.72493 0.42,-0.26595 1.44281,-0.18124 1.44281,-0.18124 l 0.88537,0.43497 c 0,0 -1.71501,-0.82515 -1.93468,-1.70359 -0.0498,-0.199 0.0489,-0.45376 0.19673,-0.57995 0.25223,-0.2153 0.64137,-0.19227 0.95096,-0.10874 0.483,0.13032 1.24609,0.90616 1.24609,0.90616 l 0.68859,1.12365 c 0,0 -0.76062,-1.47134 -0.52465,-2.1748 0.0874,-0.2608 0.3763,-0.52583 0.62303,-0.4712 0.47267,0.10463 0.68401,0.82057 0.787,1.34112 0.11328,0.57255 -0.22954,1.73984 -0.22954,1.73984 l -0.16395,0.36247"
           id="path1471-6-4"
           inkscape:connector-curvature="0"
           sodipodi:nodetypes="caaaccaaaccaaacc"
           inkscape:export-xdpi="150"
           inkscape:export-ydpi="150" />
        <path
           style="display:inline;fill:#f1a3bb;fill-opacity:1;stroke:none;stroke-width:0.27303365px;stroke-linecap:butt;stroke-linejoin:miter;stroke-opacity:1"
           d="m 169.91609,138.46405 c 0,0 -0.15622,-4.35646 1e-5,-6.52439 0.5089,-7.06195 8.04611,-10.92761 14.95285,-16.67346 h 1.18048 l 0.13116,1.88482 c 0,0 -2.67103,7.80568 -4.98427,11.01899 -3.03609,4.21736 -11.28023,10.29404 -11.28023,10.29404 z"
           id="path1716-8"
           inkscape:connector-curvature="0"
           sodipodi:nodetypes="cscccac"
           inkscape:export-xdpi="150"
           inkscape:export-ydpi="150" />
        <path
           style="display:inline;fill:#58341e;fill-opacity:1;stroke:none;stroke-width:0.27303365px;stroke-linecap:butt;stroke-linejoin:miter;stroke-opacity:1"
           d="m 172.80172,129.32995 c 0,0 -1.19473,1.7336 -1.50098,2.74893 -0.59866,1.98478 -0.57029,6.24486 -0.57029,6.24486 -1.53396,0.81662 -4.2875,0.25079 -0.94554,0.72026 -3.49054,-1.31281 -3.37682,-5.45137 -3.71915,-8.53616 -0.38936,-3.50859 0.1458,-7.39522 1.99851,-10.4001 1.30609,-2.11833 3.58373,-3.68864 5.91795,-4.55157 2.58715,-0.95644 5.50588,-0.41497 8.26341,-0.43495 1.26866,-0.009 3.8038,0.14498 3.8038,0.14498"
           id="path1718-3"
           inkscape:connector-curvature="0"
           sodipodi:nodetypes="caccaaaac"
           inkscape:export-xdpi="150"
           inkscape:export-ydpi="150" />
        <path
           style="display:inline;fill:#78c8d1;fill-opacity:1;stroke:none;stroke-width:0.27303365px;stroke-linecap:butt;stroke-linejoin:miter;stroke-opacity:1"
           d="m 168.21096,138.60904 0.26232,0.14498 c 0,0 7.79198,-5.43838 10.88671,-9.13415 2.57854,-3.07935 6.16477,-10.58402 6.16477,-10.58402 l 0.52467,-1.73984 c 0,0 1.76,12.99242 -0.33918,18.82338 -0.65902,1.83055 -2.02262,3.44835 -3.59578,4.37447 -2.66163,1.56691 -5.99808,2.12523 -8.95109,1.44987 -1.758,-0.40206 -4.58144,-3.12964 -4.58144,-3.12964 z"
           id="path1720-7"
           inkscape:connector-curvature="0"
           sodipodi:nodetypes="ccaccaaacc"
           inkscape:export-xdpi="150"
           inkscape:export-ydpi="150" />
        <text
           xml:space="preserve"
           style="font-style:normal;font-variant:normal;font-weight:normal;font-stretch:normal;font-size:29.66374207px;line-height:1.25;font-family:'Blastpink Script';-inkscape-font-specification:'Blastpink Script';letter-spacing:0px;word-spacing:0px;fill:#000000;fill-opacity:1;stroke:none;stroke-width:0.74159348"
           x="27.778616"
           y="94.36895"
           id="text7399"
           transform="scale(0.90114491,1.1096994)"
           inkscape:export-xdpi="150"
           inkscape:export-ydpi="150"><tspan
             sodipodi:role="line"
             id="tspan7397"
             x="27.778616"
             y="94.36895"
             style="font-style:normal;font-variant:normal;font-weight:normal;font-stretch:normal;font-family:Bellota;-inkscape-font-specification:Bellota;stroke-width:0.74159348;fill:#000000">mamãe</tspan></text>
        <text
           xml:space="preserve"
           style="font-style:normal;font-variant:normal;font-weight:normal;font-stretch:normal;font-size:35.00851059px;line-height:1.25;font-family:'Blastpink Script';-inkscape-font-specification:'Blastpink Script';letter-spacing:0px;word-spacing:0px;fill:#000000;fill-opacity:1;stroke:none;stroke-width:0.87521273"
           x="34.993759"
           y="161.79585"
           id="text7403"
           transform="scale(0.91459392,1.0933814)"
           inkscape:export-xdpi="150"
           inkscape:export-ydpi="150"><tspan
             sodipodi:role="line"
             id="tspan7401"
             x="34.993759"
             y="161.79585"
             style="font-style:normal;font-variant:normal;font-weight:normal;font-stretch:normal;font-family:Bellota;-inkscape-font-specification:Bellota;fill:#000000;stroke-width:0.87521273">doces</tspan></text>
      </g>
    </g>
  </g>
</svg>
